{
  "version_name": "3.2.8",
  "version_code": 28,
  "aurora_build": "https://gitlab.com/AuroraOSS/AuroraStore/uploads/d89f27b2223b9aab90e274f06aa8f44d/AuroraStore_3.2.8.apk",
  "fdroid_build": "",
  "changelog": "\n Changelog : v3.2.8\n • Bug fixes and improvements\n • Updated translations"
}